Predict the President
…
Webscraping was used to collect this data. The speeches for each SONA was saved in a textfile.

The idea here is that each president should be represented equally in their training and validation. It is not neccessary to concern oneself with the equality of representation in the test set. For this reason, it would make sense to extract a sample of the same size for each president, regardless of how many speeches they’ve done.

Another thing to try is to simply remove the outliers Mothlale and deKlerk as they each only provided one speech. It is possible that looking into such characters may in fact skew the nature of this report in the predicting ability of the models.

Another method is to look into inversely proportional. This is almost the same idea as having equal representations.

Let’s train the data on a sample of 1000 for each president and see how it fairs. Howver, I do know that these 1000 samples cannot feature the opening statements because they all say the openning statements

Lemmatization

It may be necessary to perform lemmatization as commonly appearing words may appear in different forms for each president. So changing something like running to run may be necessary in finding commonly occuring words for example.

# A tibble: 36 × 5
   filename                        speech                  year  president date 
   <chr>                           <chr>                   <chr> <fct>     <chr>
 1 1994_post_elections_Mandela.txt "Madame Speaker and De… 1994  Mandela   24-0…
 2 1994_pre_elections_deKlerk.txt  "Mr Speaker  This Parl… 1994  deKlerk   28-0…
 3 1995_Mandela.txt                "Honourable President … 1995  Mandela   17-0…
 4 1996_Mandela.txt                "Honourable President … 1996  Mandela   9-02…
 5 1997_Mandela.txt                "Madame Speaker and De… 1997  Mandela   7-02…
 6 1998_Mandela.txt                "Madame Speaker and De… 1998  Mandela   6-02…
 7 1999_post_elections_Mandela.txt "Madames Speaker and D… 1999  Mandela   25-0…
 8 1999_pre_elections_Mandela.txt  "Madame Speaker and De… 1999  Mandela   5-02…
 9 2000_Mbeki.txt                  "Madame Speaker and De… 2000  Mbeki     4-02…
10 2001_Mbeki.txt                  "Madame Speaker and De… 2001  Mbeki     9-02…
# ℹ 26 more rows
…
